^C:\USERS\GASTON\DOCUMENTS\1TSY16-GP1-TG002-DUALAN-GASTON\FRICTION AND ANGLE\FRICTION AND ANGLE\FRICTION EQUATION.CPP
C:\USERS\GASTON\DOCUMENTS\1TSY16-GP1-TG002-DUALAN-GASTON\FRICTION AND ANGLE\FRICTION AND ANGLE\DEBUG\FRICTION EQUATION.OBJ
C:\USERS\GASTON\DOCUMENTS\1TSY16-GP1-TG002-DUALAN-GASTON\FRICTION AND ANGLE\FRICTION AND ANGLE\DEBUG\VC100.PDB
