^C:\USERS\GASTON\DOCUMENTS\1TSY16-GP1-TG002-DUALAN-GASTON\FRICTION AND ANGLE\FRICTION AND ANGLE\DEBUG\FRICTION AND ANGLE.EXE.INTERMEDIATE.MANIFEST
C:\WINDOWS\REGISTRATION\R00000000000D.CLB
C:\WINDOWS\MICROSOFT.NET\FRAMEWORK\V2.0.50727\MSCORWKS.DLL
C:\WINDOWS\MICROSOFT.NET\FRAMEWORK\V4.0.30319\CLR.DLL
C:\PROGRAM FILES (X86)\MICROSOFT SDKS\WINDOWS\V7.0A\BIN\MT.EXE.CONFIG
C:\USERS\GASTON\DOCUMENTS\1TSY16-GP1-TG002-DUALAN-GASTON\FRICTION AND ANGLE\DEBUG\FRICTION AND ANGLE.EXE
